Data,Dosare penale noi,Dosare penale totale,Contravenții noi - încălcarea izolării,Contravenții totale - încălcarea izolării,Contravenții noi sub starea de alertă,Contravenții totale sub starea de alertă,Contravenții noi - restricții de circulație,Contravenții totale - restricții de circulație,Apeluri 112,Apeluri Telverde,,
06/25/2020,5,279,75,5021,393,8035,0,286298,463,1040,,Date:
06/24/2020,0,274,70,4946,362,7642,0,286298,469,1590,,Sancțiuni aplicate - 06.03.2020 - prezent
06/23/2020,5,274,76,4876,331,7280,0,286298,466,3018,,
06/22/2020,2,269,71,4800,698,6949,0,286298,297,,,Actualizat:
06/21/2020,3,267,64,4729,403,6251,0,286298,431,,,14:02 - 25.06.2020
06/20/2020,1,264,81,4665,246,5848,0,286298,412,1452,,
06/19/2020,3,263,75,4584,108,5602,0,286298,494,1606,,Surse:
06/18/2020,2,260,120,4509,141,5494,0,286298,486,2160,,https://www.mai.gov.ro/category/comunicate-de-presa/
06/17/2020,2,258,92,4389,111,5353,0,286298,406,2906,,
06/16/2020,1,256,86,4297,107,5242,0,286298,454,4963,,
06/15/2020,2,255,88,4211,143,5135,0,286298,377,1224,,
06/14/2020,1,253,62,4123,288,4992,0,286298,391,1372,,
06/13/2020,1,252,66,4061,211,4704,0,286298,430,1853,,
06/12/2020,1,251,130,3995,313,4493,0,286298,427,1359,,
06/11/2020,3,250,79,3865,117,4180,0,286298,407,1287,,
06/10/2020,5,247,102,3786,141,4063,0,286298,465,1397,,
06/09/2020,2,242,70,3684,120,3922,0,286298,361,924,,
06/08/2020,1,640,73,3614,343,3802,0,286298,289,585,,
06/07/2020,2,639,71,3541,284,3459,0,286298,384,675,,
06/06/2020,1,637,77,3470,268,3175,0,286298,418,989,,
06/05/2020,4,636,89,3393,111,2907,0,286298,453,1094,,
06/04/2020,2,632,88,3304,121,2796,0,286298,404,1259,,
06/03/2020,3,630,168,3216,110,2675,0,286298,485,1499,,
06/02/2020,5,627,58,3048,151,2565,0,286298,397,1604,,
06/01/2020,2,622,66,2990,148,2414,0,286298,354,867,,
05/31/2020,4,620,44,2924,141,2266,0,286298,380,1022,,
05/30/2020,3,616,69,2880,174,2125,0,286298,429,1393,,
05/29/2020,4,613,50,2811,195,1951,0,286298,389,1248,,
05/28/2020,2,609,119,2761,214,1756,0,286298,418,1296,,
05/27/2020,2,607,61,2642,181,1542,0,286298,402,1093,,
05/26/2020,6,605,92,2581,169,1361,0,286298,476,1437,,
05/25/2020,2,599,37,2489,232,1192,0,286298,341,717,,
05/24/2020,0,597,61,2452,278,960,0,286298,342,833,,
05/23/2020,3,597,54,2391,251,682,0,286298,537,1178,,
05/22/2020,4,594,33,2337,156,431,0,286298,440,1261,,
05/21/2020,3,590,0,2304,148,275,0,286298,447,1296,,
05/20/2020,9,587,0,2304,127,0,0,286298,428,1440,,
05/19/2020,0,578,0,2304,0,0,0,286298,463,1869,,
05/18/2020,0,578,0,2304,0,0,0,286298,393,1079,,
05/17/2020,0,578,0,2304,0,0,0,286298,309,1614,,
05/16/2020,0,578,0,2304,0,0,0,286298,402,4961,,
05/15/2020,6,578,1,2304,0,0,0,286298,364,3798,,
05/14/2020,4,572,1,2303,0,0,112,286298,468,1932,,
05/13/2020,5,568,0,2302,0,0,107,286186,375,1794,,
05/12/2020,4,563,12,2302,0,0,273,286079,412,1905,,
05/11/2020,2,559,4,2290,0,0,369,285806,412,815,,
05/10/2020,2,557,2,2286,0,0,331,285437,406,1027,,
05/09/2020,14,555,17,2284,0,0,444,285106,410,1252,,
05/08/2020,2,541,1,2267,0,0,871,284662,426,1451,,
05/07/2020,1,539,1,2266,0,0,3055,283791,504,1406,,
05/06/2020,12,538,5,2265,0,0,3592,280736,460,1517,,
05/05/2020,4,526,7,2260,0,0,3709,277144,514,1896,,
05/04/2020,3,522,2,2253,0,0,5374,273435,401,1101,,
05/03/2020,3,519,2,2251,0,0,5834,268061,422,1031,,
05/02/2020,5,516,5,2249,0,0,5477,262227,470,1176,,
05/01/2020,9,511,11,2244,0,0,3957,256750,585,1543,,
04/30/2020,5,502,5,2233,0,0,4244,252793,582,1670,,
04/29/2020,6,497,7,2228,0,0,4318,248549,587,1928,,
04/28/2020,1,491,4,2221,0,0,4403,244231,602,2282,,
04/27/2020,4,490,4,2217,0,0,5406,239828,425,1197,,
04/26/2020,3,486,6,2213,0,0,4829,234422,488,1172,,
04/25/2020,12,483,8,2207,0,0,5218,229593,579,1589,,
04/24/2020,5,471,14,2199,0,0,5424,224375,389,1573,,
04/23/2020,9,466,13,2185,0,0,5192,218951,375,1701,,
04/22/2020,5,457,38,2172,0,0,4950,213759,432,1970,,
04/21/2020,4,452,6,2134,0,0,5271,208809,341,1465,,
04/20/2020,6,448,15,2128,0,0,4787,203538,299,803,,
04/19/2020,8,442,7,2113,0,0,5410,198751,420,1018,,
04/18/2020,6,434,15,2106,0,0,6368,193341,418,1398,,
04/17/2020,11,428,13,2091,0,0,6777,186973,453,1982,,
04/16/2020,16,417,26,2078,0,0,6171,180196,447,1917,,
04/15/2020,11,401,11,2052,0,0,6866,174025,445,1923,,
04/14/2020,11,390,25,2041,0,0,8553,167159,512,2430,,
04/13/2020,5,379,18,2016,0,0,9791,158606,422,1348,,
04/12/2020,8,374,21,1998,0,0,8862,148815,500,1486,,
04/11/2020,16,366,18,1977,0,0,8992,139953,558,2183,,
04/10/2020,9,350,42,1959,0,0,9246,130961,537,2109,,
04/09/2020,6,341,48,1917,0,0,7741,121715,648,2398,,
04/08/2020,9,335,169,1869,0,0,6690,113974,631,2505,,
04/07/2020,11,326,61,1700,0,0,6757,107284,663,3042,,
04/06/2020,5,315,39,1639,0,0,9449,100527,656,2513,,
04/05/2020,10,310,121,1600,0,0,7935,91078,766,3300,,
04/04/2020,15,300,1479,1479,0,0,7824,83143,893,4164,,
04/03/2020,14,285,0,0,0,0,9143,75319,913,5385,,
04/02/2020,11,271,0,0,0,0,7385,66176,847,3930,,
04/01/2020,4,260,0,0,0,0,6939,58791,923,4826,,
03/31/2020,15,256,0,0,0,0,8276,51852,1151,6393,,
03/30/2020,12,241,0,0,0,0,10092,43576,1009,3912,,
03/29/2020,20,229,0,0,0,0,9511,33484,1018,4118,,
03/28/2020,10,209,0,0,0,0,10362,23973,1122,6039,,
03/27/2020,16,199,0,0,0,0,13611,13611,1127,6553,,
03/26/2020,16,183,0,0,0,0,0,0,1482,10024,,
03/25/2020,13,167,0,0,0,0,0,0,1391,9359,,
03/24/2020,13,154,0,0,0,0,0,0,1473,8171,,
03/23/2020,12,141,0,0,0,0,0,0,1073,5134,,
03/22/2020,12,129,0,0,0,0,0,0,1231,4857,,
03/21/2020,19,117,0,0,0,0,0,0,1501,5704,,
03/20/2020,47,98,0,0,0,0,0,0,1604,4950,,
03/19/2020,0,51,0,0,0,0,0,0,1482,5427,,
03/18/2020,11,51,0,0,0,0,0,0,1395,7885,,
03/17/2020,4,40,0,0,0,0,0,0,1349,6187,,
03/16/2020,0,36,0,0,0,0,0,0,1153,5517,,
03/15/2020,3,36,0,0,0,0,0,0,1231,5614,,
03/14/2020,1,33,0,0,0,0,0,0,1453,6515,,
03/13/2020,4,32,0,0,0,0,0,0,1170,6826,,
03/12/2020,7,28,0,0,0,0,0,0,813,6118,,
03/11/2020,2,21,0,0,0,0,0,0,0,0,,
03/10/2020,1,19,0,0,0,0,0,0,280,2376,,
03/09/2020,18,18,0,0,0,0,0,0,107,917,,
03/08/2020,0,0,0,0,0,0,0,0,89,669,,
03/07/2020,0,0,0,0,0,0,0,0,0,0,,
03/06/2020,0,0,0,0,0,0,0,0,96,1086,,
